CRITICAL - 2021-11-03 12:20:57 --> Class "App\Controllers\AlumnosModel" not found
#0 /datos/usuarios/alumnos/a054292822b/lampstack-8.0.10-1/frameworks/codeigniter/system/CodeIgniter.php(802): App\Controllers\FormularioController->index()
#1 /datos/usuarios/alumnos/a054292822b/lampstack-8.0.10-1/frameworks/codeigniter/system/CodeIgniter.php(399): CodeIgniter\CodeIgniter->runController()
#2 /datos/usuarios/alumnos/a054292822b/lampstack-8.0.10-1/frameworks/codeigniter/system/CodeIgniter.php(317): CodeIgniter\CodeIgniter->handleRequest()
#3 /datos/usuarios/alumnos/a054292822b/lampstack-8.0.10-1/frameworks/codeigniter/public/index.php(37): CodeIgniter\CodeIgniter->run()
#4 {main}
CRITICAL - 2021-11-03 12:25:35 --> Undefined array key "nombre"
#0 /datos/usuarios/alumnos/a054292822b/lampstack-8.0.10-1/frameworks/codeigniter/app/Views/lista.php(51): CodeIgniter\Debug\Exceptions->errorHandler()
#1 /datos/usuarios/alumnos/a054292822b/lampstack-8.0.10-1/frameworks/codeigniter/system/View/View.php(214): include('...')
#2 /datos/usuarios/alumnos/a054292822b/lampstack-8.0.10-1/frameworks/codeigniter/system/View/View.php(217): CodeIgniter\View\View->CodeIgniter\View\{closure}()
#3 /datos/usuarios/alumnos/a054292822b/lampstack-8.0.10-1/frameworks/codeigniter/system/Common.php(1092): CodeIgniter\View\View->render()
#4 /datos/usuarios/alumnos/a054292822b/lampstack-8.0.10-1/frameworks/codeigniter/app/Controllers/FormularioController.php(14): view()
#5 /datos/usuarios/alumnos/a054292822b/lampstack-8.0.10-1/frameworks/codeigniter/system/CodeIgniter.php(802): App\Controllers\FormularioController->index()
#6 /datos/usuarios/alumnos/a054292822b/lampstack-8.0.10-1/frameworks/codeigniter/system/CodeIgniter.php(399): CodeIgniter\CodeIgniter->runController()
#7 /datos/usuarios/alumnos/a054292822b/lampstack-8.0.10-1/frameworks/codeigniter/system/CodeIgniter.php(317): CodeIgniter\CodeIgniter->handleRequest()
#8 /datos/usuarios/alumnos/a054292822b/lampstack-8.0.10-1/frameworks/codeigniter/public/index.php(37): CodeIgniter\CodeIgniter->run()
#9 {main}
CRITICAL - 2021-11-03 12:26:48 --> Undefined array key "nombre"
#0 /datos/usuarios/alumnos/a054292822b/lampstack-8.0.10-1/frameworks/codeigniter/app/Views/lista.php(51): CodeIgniter\Debug\Exceptions->errorHandler()
#1 /datos/usuarios/alumnos/a054292822b/lampstack-8.0.10-1/frameworks/codeigniter/system/View/View.php(214): include('...')
#2 /datos/usuarios/alumnos/a054292822b/lampstack-8.0.10-1/frameworks/codeigniter/system/View/View.php(217): CodeIgniter\View\View->CodeIgniter\View\{closure}()
#3 /datos/usuarios/alumnos/a054292822b/lampstack-8.0.10-1/frameworks/codeigniter/system/Common.php(1092): CodeIgniter\View\View->render()
#4 /datos/usuarios/alumnos/a054292822b/lampstack-8.0.10-1/frameworks/codeigniter/app/Controllers/FormularioController.php(14): view()
#5 /datos/usuarios/alumnos/a054292822b/lampstack-8.0.10-1/frameworks/codeigniter/system/CodeIgniter.php(802): App\Controllers\FormularioController->index()
#6 /datos/usuarios/alumnos/a054292822b/lampstack-8.0.10-1/frameworks/codeigniter/system/CodeIgniter.php(399): CodeIgniter\CodeIgniter->runController()
#7 /datos/usuarios/alumnos/a054292822b/lampstack-8.0.10-1/frameworks/codeigniter/system/CodeIgniter.php(317): CodeIgniter\CodeIgniter->handleRequest()
#8 /datos/usuarios/alumnos/a054292822b/lampstack-8.0.10-1/frameworks/codeigniter/public/index.php(37): CodeIgniter\CodeIgniter->run()
#9 {main}
CRITICAL - 2021-11-03 12:26:49 --> Undefined array key "nombre"
#0 /datos/usuarios/alumnos/a054292822b/lampstack-8.0.10-1/frameworks/codeigniter/app/Views/lista.php(51): CodeIgniter\Debug\Exceptions->errorHandler()
#1 /datos/usuarios/alumnos/a054292822b/lampstack-8.0.10-1/frameworks/codeigniter/system/View/View.php(214): include('...')
#2 /datos/usuarios/alumnos/a054292822b/lampstack-8.0.10-1/frameworks/codeigniter/system/View/View.php(217): CodeIgniter\View\View->CodeIgniter\View\{closure}()
#3 /datos/usuarios/alumnos/a054292822b/lampstack-8.0.10-1/frameworks/codeigniter/system/Common.php(1092): CodeIgniter\View\View->render()
#4 /datos/usuarios/alumnos/a054292822b/lampstack-8.0.10-1/frameworks/codeigniter/app/Controllers/FormularioController.php(14): view()
#5 /datos/usuarios/alumnos/a054292822b/lampstack-8.0.10-1/frameworks/codeigniter/system/CodeIgniter.php(802): App\Controllers\FormularioController->index()
#6 /datos/usuarios/alumnos/a054292822b/lampstack-8.0.10-1/frameworks/codeigniter/system/CodeIgniter.php(399): CodeIgniter\CodeIgniter->runController()
#7 /datos/usuarios/alumnos/a054292822b/lampstack-8.0.10-1/frameworks/codeigniter/system/CodeIgniter.php(317): CodeIgniter\CodeIgniter->handleRequest()
#8 /datos/usuarios/alumnos/a054292822b/lampstack-8.0.10-1/frameworks/codeigniter/public/index.php(37): CodeIgniter\CodeIgniter->run()
#9 {main}
CRITICAL - 2021-11-03 12:26:49 --> Undefined array key "nombre"
#0 /datos/usuarios/alumnos/a054292822b/lampstack-8.0.10-1/frameworks/codeigniter/app/Views/lista.php(51): CodeIgniter\Debug\Exceptions->errorHandler()
#1 /datos/usuarios/alumnos/a054292822b/lampstack-8.0.10-1/frameworks/codeigniter/system/View/View.php(214): include('...')
#2 /datos/usuarios/alumnos/a054292822b/lampstack-8.0.10-1/frameworks/codeigniter/system/View/View.php(217): CodeIgniter\View\View->CodeIgniter\View\{closure}()
#3 /datos/usuarios/alumnos/a054292822b/lampstack-8.0.10-1/frameworks/codeigniter/system/Common.php(1092): CodeIgniter\View\View->render()
#4 /datos/usuarios/alumnos/a054292822b/lampstack-8.0.10-1/frameworks/codeigniter/app/Controllers/FormularioController.php(14): view()
#5 /datos/usuarios/alumnos/a054292822b/lampstack-8.0.10-1/frameworks/codeigniter/system/CodeIgniter.php(802): App\Controllers\FormularioController->index()
#6 /datos/usuarios/alumnos/a054292822b/lampstack-8.0.10-1/frameworks/codeigniter/system/CodeIgniter.php(399): CodeIgniter\CodeIgniter->runController()
#7 /datos/usuarios/alumnos/a054292822b/lampstack-8.0.10-1/frameworks/codeigniter/system/CodeIgniter.php(317): CodeIgniter\CodeIgniter->handleRequest()
#8 /datos/usuarios/alumnos/a054292822b/lampstack-8.0.10-1/frameworks/codeigniter/public/index.php(37): CodeIgniter\CodeIgniter->run()
#9 {main}
CRITICAL - 2021-11-03 12:27:04 --> Undefined array key "nombre"
#0 /datos/usuarios/alumnos/a054292822b/lampstack-8.0.10-1/frameworks/codeigniter/app/Views/lista.php(51): CodeIgniter\Debug\Exceptions->errorHandler()
#1 /datos/usuarios/alumnos/a054292822b/lampstack-8.0.10-1/frameworks/codeigniter/system/View/View.php(214): include('...')
#2 /datos/usuarios/alumnos/a054292822b/lampstack-8.0.10-1/frameworks/codeigniter/system/View/View.php(217): CodeIgniter\View\View->CodeIgniter\View\{closure}()
#3 /datos/usuarios/alumnos/a054292822b/lampstack-8.0.10-1/frameworks/codeigniter/system/Common.php(1092): CodeIgniter\View\View->render()
#4 /datos/usuarios/alumnos/a054292822b/lampstack-8.0.10-1/frameworks/codeigniter/app/Controllers/FormularioController.php(14): view()
#5 /datos/usuarios/alumnos/a054292822b/lampstack-8.0.10-1/frameworks/codeigniter/system/CodeIgniter.php(802): App\Controllers\FormularioController->index()
#6 /datos/usuarios/alumnos/a054292822b/lampstack-8.0.10-1/frameworks/codeigniter/system/CodeIgniter.php(399): CodeIgniter\CodeIgniter->runController()
#7 /datos/usuarios/alumnos/a054292822b/lampstack-8.0.10-1/frameworks/codeigniter/system/CodeIgniter.php(317): CodeIgniter\CodeIgniter->handleRequest()
#8 /datos/usuarios/alumnos/a054292822b/lampstack-8.0.10-1/frameworks/codeigniter/public/index.php(37): CodeIgniter\CodeIgniter->run()
#9 {main}
CRITICAL - 2021-11-03 13:11:09 --> Undefined constant "App\Controllers\alumnos"
#0 /datos/usuarios/alumnos/a054292822b/lampstack-8.0.10-1/frameworks/codeigniter/system/CodeIgniter.php(802): App\Controllers\FormularioController->index()
#1 /datos/usuarios/alumnos/a054292822b/lampstack-8.0.10-1/frameworks/codeigniter/system/CodeIgniter.php(399): CodeIgniter\CodeIgniter->runController()
#2 /datos/usuarios/alumnos/a054292822b/lampstack-8.0.10-1/frameworks/codeigniter/system/CodeIgniter.php(317): CodeIgniter\CodeIgniter->handleRequest()
#3 /datos/usuarios/alumnos/a054292822b/lampstack-8.0.10-1/frameworks/codeigniter/public/index.php(37): CodeIgniter\CodeIgniter->run()
#4 {main}
